{
  "images" : [
    {
      "filename" : "Icon-open-elevator.png",
      "idiom" : "universal",
      "scale" : "1x"
    },
    {
      "filename" : "Icon-open-elevator-1.png",
      "idiom" : "universal",
      "scale" : "2x"
    },
    {
      "filename" : "Icon-open-elevator-2.png",
      "idiom" : "universal",
      "scale" : "3x"
    }
  ],
  "info" : {
    "author" : "xcode",
    "version" : 1
  }
}
