<svg xmlns="http://www.w3.org/2000/svg" width="22" height="22" viewBox="0 0 22 22">
  <g id="help-circle" transform="translate(-1 -1)">
    <circle id="Ellipse_808" data-name="Ellipse 808" cx="10" cy="10" r="10" transform="translate(2 2)" fill="none" stroke="#e4e4e4" stroke-linecap="round" stroke-linejoin="round" stroke-width="2"/>
    <path id="Path_3635" data-name="Path 3635" d="M9.09,9a3,3,0,0,1,5.83,1c0,2-3,3-3,3" fill="none" stroke="#e4e4e4" stroke-linecap="round" stroke-linejoin="round" stroke-width="2"/>
    <line id="Line_700" data-name="Line 700" x2="0.01" transform="translate(12 17)" fill="none" stroke="#e4e4e4" stroke-linecap="round" stroke-linejoin="round" stroke-width="2"/>
  </g>
</svg>
